Project
…
## # A tibble: 1 x 4
##   created_at          screen_name text                             retweet_count
##   <dttm>              <chr>       <chr>                                    <int>
## 1 2021-05-05 03:46:01 WebForging  "We must #ProtectTheVote\n\nRT         29229

# Most favorited tweet under #PROTECTTHEVOTE

PROTECTTHEVOTE %>% 
  arrange(-favorite_count) %>%
  top_n(5, favorite_count) %>% 
  select(created_at, screen_name, text, favorite_count)

## # A tibble: 100 x 4
##    created_at          screen_name   text                         favorite_count
##    <dttm>              <chr>         <chr>                                 <int>
##  1 2021-05-05 12:29:35 womenwotw1    "Fired up? Ready to go. #Ma              5
##  2 2021-05-05 00:49:30 ArvaChris     "@GOPLeader We can disagree              4
##  3 2021-05-05 00:30:23 Deemoney521   "Democrats want you to vote              3
##  4 2021-05-05 00:30:38 Deemoney521   "We can have a government t              2
##  5 2021-05-05 19:23:57 Ray_Shackelf "I commend @SylvesterTurner              0
##  6 2021-05-05 17:00:00 GroupDemocra "@AZGOP push #VoterSuppress              0
##  7 2021-05-05 14:00:00 GroupDemocra "@AmericanAir\n@unileverusa              0
##  8 2021-05-05 16:00:02 GroupDemocra "#GA +9%\n#TX +9%\n#PA +8%\              0
##  9 2021-05-05 16:02:46 TJC_DC        "Fired up? Ready to go. #Ma              0
## 10 2021-05-05 15:55:16 ccathcartspe "Bravo, but the proof will               0
## #  with 90 more rows
